{
    "status": "ok",
    "status_message": "Query was successful",
    "data": {
       "movie_count": 15379,
       "limit": 20,
       "page_number": 1,
       "movies": [
          {
             "id": 15775,
             "url": "https://yts.mx/movie/moonlight-mile-2002",
             "imdb_code": "tt0179098",
             "title": "Moonlight Mile",
             "title_english": "Moonlight Mile",
             "title_long": "Moonlight Mile (2002)",
             "slug": "moonlight-mile-2002",
             "year": 2002,
             "rating": 6.6,
             "runtime": 112,
             "genres": [
                "Drama",
                "Romance"
             ],
             "summary": "A young man lingers in the family home of his fiancee, after her accidental death. While grieving along with her parents and drawn into legal issues presented by a district attorney seeking justice for the family, he finds himself falling in love with another woman, against his own best intentions.",
             "description_full": "A young man lingers in the family home of his fiancee, after her accidental death. While grieving along with her parents and drawn into legal issues presented by a district attorney seeking justice for the family, he finds himself falling in love with another woman, against his own best intentions.",
             "synopsis": "A young man lingers in the family home of his fiancee, after her accidental death. While grieving along with her parents and drawn into legal issues presented by a district attorney seeking justice for the family, he finds himself falling in love with another woman, against his own best intentions.",
             "yt_trailer_code": "-4IdTOB08OQ",
             "language": "English",
             "mpa_rating": "PG-13",
             "background_image": "https://yts.mx/assets/images/movies/moonlight_mile_2002/background.jpg",
             "background_image_original": "https://yts.mx/assets/images/movies/moonlight_mile_2002/background.jpg",
             "small_cover_image": "https://yts.mx/assets/images/movies/moonlight_mile_2002/small-cover.jpg",
             "medium_cover_image": "https://yts.mx/assets/images/movies/moonlight_mile_2002/medium-cover.jpg",
             "large_cover_image": "https://yts.mx/assets/images/movies/moonlight_mile_2002/large-cover.jpg",
             "state": "ok",
             "torrents": [
                {
                   "url": "https://yts.mx/torrent/download/336765681E2B85DB429EB82487BDB0201DD2E5D4",
                   "hash": "336765681E2B85DB429EB82487BDB0201DD2E5D4",
                   "quality": "720p",
                   "type": "web",
                   "seeds": 74,
                   "peers": 108,
                   "size": "1.05 GB",
                   "size_bytes": 1127428915,
                   "date_uploaded": "2020-03-05 16:31:48",
                   "date_uploaded_unix": 1583422308
                },
                {
                   "url": "https://yts.mx/torrent/download/EBEC94CB55D739DB88DA9DA11211F8D4434C1F37",
                   "hash": "EBEC94CB55D739DB88DA9DA11211F8D4434C1F37",
                   "quality": "1080p",
                   "type": "web",
                   "seeds": 0,
                   "peers": 0,
                   "size": "2.08 GB",
                   "size_bytes": 2233382994,
                   "date_uploaded": "2020-03-05 18:16:30",
                   "date_uploaded_unix": 1583428590
                }
             ],
             "date_uploaded": "2020-03-05 16:31:48",
             "date_uploaded_unix": 1583422308
          },
          {
             "id": 15771,
             "url": "https://yts.mx/movie/high-sierra-1941",
             "imdb_code": "tt0033717",
             "title": "High Sierra",
             "title_english": "High Sierra",
             "title_long": "High Sierra (1941)",
             "slug": "high-sierra-1941",
             "year": 1941,
             "rating": 7.5,
             "runtime": 100,
             "genres": [
                "Action",
                "Adventure",
                "Crime",
                "Drama",
                "Film-Noir",
                "Thriller"
             ],
             "summary": "Roy 'Mad Dog' Earle is broken out of prison by an old associate who wants him to help with an upcoming robbery. When the robbery goes wrong and a man is shot and killed Earle is forced to go on the run, and with the police and an angry press hot on his tail he eventually takes refuge among the peaks of the Sierra Nevadas, where a tense siege ensues. But will the Police make him regret the attachments he formed with two women during the brief planning of the robbery.",
             "description_full": "Roy 'Mad Dog' Earle is broken out of prison by an old associate who wants him to help with an upcoming robbery. When the robbery goes wrong and a man is shot and killed Earle is forced to go on the run, and with the police and an angry press hot on his tail he eventually takes refuge among the peaks of the Sierra Nevadas, where a tense siege ensues. But will the Police make him regret the attachments he formed with two women during the brief planning of the robbery.",
             "synopsis": "Roy 'Mad Dog' Earle is broken out of prison by an old associate who wants him to help with an upcoming robbery. When the robbery goes wrong and a man is shot and killed Earle is forced to go on the run, and with the police and an angry press hot on his tail he eventually takes refuge among the peaks of the Sierra Nevadas, where a tense siege ensues. But will the Police make him regret the attachments he formed with two women during the brief planning of the robbery.",
             "yt_trailer_code": "TrHArGouvZY",
             "language": "English",
             "mpa_rating": "",
             "background_image": "https://yts.mx/assets/images/movies/high_sierra_1941/background.jpg",
             "background_image_original": "https://yts.mx/assets/images/movies/high_sierra_1941/background.jpg",
             "small_cover_image": "https://yts.mx/assets/images/movies/high_sierra_1941/small-cover.jpg",
             "medium_cover_image": "https://yts.mx/assets/images/movies/high_sierra_1941/medium-cover.jpg",
             "large_cover_image": "https://yts.mx/assets/images/movies/high_sierra_1941/large-cover.jpg",
             "state": "ok",
             "torrents": [
                {
                   "url": "https://yts.mx/torrent/download/573795F7CE6AAFE8C32202E315D90DB475CE8C58",
                   "hash": "573795F7CE6AAFE8C32202E315D90DB475CE8C58",
                   "quality": "720p",
                   "type": "web",
                   "seeds": 19,
                   "peers": 52,
                   "size": "916 MB",
                   "size_bytes": 960495616,
                   "date_uploaded": "2020-03-05 13:58:34",
                   "date_uploaded_unix": 1583413114
                },
                {
                   "url": "https://yts.mx/torrent/download/55223A73A29739756FE61C4E73FB653F2594DC29",
                   "hash": "55223A73A29739756FE61C4E73FB653F2594DC29",
                   "quality": "1080p",
                   "type": "web",
                   "seeds": 0,
                   "peers": 0,
                   "size": "1.66 GB",
                   "size_bytes": 1782411428,
                   "date_uploaded": "2020-03-05 15:36:12",
                   "date_uploaded_unix": 1583418972
                }
             ],
             "date_uploaded": "2020-03-05 13:58:34",
             "date_uploaded_unix": 1583413114
          },
          {
             "id": 15770,
             "url": "https://yts.mx/movie/a-christmas-carol-1951",
             "imdb_code": "tt0044008",
             "title": "A Christmas Carol",
             "title_english": "A Christmas Carol",
             "title_long": "A Christmas Carol (1951)",
             "slug": "a-christmas-carol-1951",
             "year": 1951,
             "rating": 8.1,
             "runtime": 86,
             "genres": [
                "Drama",
                "Fantasy"
             ],
             "summary": "Stubbornly refusing to believe in Christmas, and to be separated from his inexhaustible wealth, the Victorian money lender and parsimonious recluse, Ebenezer Scrooge (Alastair Sim), can't be bothered with the poor and destitute at the most festive time of the year. Intent on spending the holy night alone, instead, the sceptical curmudgeon is visited by an unexpected and sympathetic friend, Jacob Marley (Sir Michael Hordern), who will pave the way for the inevitable visitation of the otherworldly spirits of Christmas Past (Michael Dolan), Present (Francis De Wolff), and Yet to Come (Czeslaw Konarski). But, what do the pale ghosts want? Can a wicked old miser admit the error in his ways, and embrace change? In the end, is Scrooge ready to love and be loved?",
             "description_full": "Stubbornly refusing to believe in Christmas, and to be separated from his inexhaustible wealth, the Victorian money lender and parsimonious recluse, Ebenezer Scrooge (Alastair Sim), can't be bothered with the poor and destitute at the most festive time of the year. Intent on spending the holy night alone, instead, the sceptical curmudgeon is visited by an unexpected and sympathetic friend, Jacob Marley (Sir Michael Hordern), who will pave the way for the inevitable visitation of the otherworldly spirits of Christmas Past (Michael Dolan), Present (Francis De Wolff), and Yet to Come (Czeslaw Konarski). But, what do the pale ghosts want? Can a wicked old miser admit the error in his ways, and embrace change? In the end, is Scrooge ready to love and be loved?",
             "synopsis": "Stubbornly refusing to believe in Christmas, and to be separated from his inexhaustible wealth, the Victorian money lender and parsimonious recluse, Ebenezer Scrooge (Alastair Sim), can't be bothered with the poor and destitute at the most festive time of the year. Intent on spending the holy night alone, instead, the sceptical curmudgeon is visited by an unexpected and sympathetic friend, Jacob Marley (Sir Michael Hordern), who will pave the way for the inevitable visitation of the otherworldly spirits of Christmas Past (Michael Dolan), Present (Francis De Wolff), and Yet to Come (Czeslaw Konarski). But, what do the pale ghosts want? Can a wicked old miser admit the error in his ways, and embrace change? In the end, is Scrooge ready to love and be loved?",
             "yt_trailer_code": "cqgQAqVgtg0",
             "language": "English",
             "mpa_rating": "",
             "background_image": "https://yts.mx/assets/images/movies/a_christmas_carol_1951/background.jpg",
             "background_image_original": "https://yts.mx/assets/images/movies/a_christmas_carol_1951/background.jpg",
             "small_cover_image": "https://yts.mx/assets/images/movies/a_christmas_carol_1951/small-cover.jpg",
             "medium_cover_image": "https://yts.mx/assets/images/movies/a_christmas_carol_1951/medium-cover.jpg",
             "large_cover_image": "https://yts.mx/assets/images/movies/a_christmas_carol_1951/large-cover.jpg",
             "state": "ok",
             "torrents": [
                {
                   "url": "https://yts.mx/torrent/download/188805FA25CB4FFB439F3CBC1A6F701E7404A1AC",
                   "hash": "188805FA25CB4FFB439F3CBC1A6F701E7404A1AC",
                   "quality": "720p",
                   "type": "bluray",
                   "seeds": 16,
                   "peers": 31,
                   "size": "794.85 MB",
                   "size_bytes": 833460634,
                   "date_uploaded": "2020-03-05 11:40:01",
                   "date_uploaded_unix": 1583404801
                },
                {
                   "url": "https://yts.mx/torrent/download/E2E7F163FF12E8054A5808A34F76499F7F6F3950",
                   "hash": "E2E7F163FF12E8054A5808A34F76499F7F6F3950",
                   "quality": "1080p",
                   "type": "bluray",
                   "seeds": 0,
                   "peers": 0,
                   "size": "1.54 GB",
                   "size_bytes": 1653562409,
                   "date_uploaded": "2020-03-05 13:07:22",
                   "date_uploaded_unix": 1583410042
                }
             ],
             "date_uploaded": "2020-03-05 11:40:01",
             "date_uploaded_unix": 1583404801
          },
          {
             "id": 15768,
             "url": "https://yts.mx/movie/dawn-of-the-felines-2017",
             "imdb_code": "tt6000140",
             "title": "Dawn of the Felines",
             "title_english": "Dawn of the Felines",
             "title_long": "Dawn of the Felines (2017)",
             "slug": "dawn-of-the-felines-2017",
             "year": 2017,
             "rating": 5.7,
             "runtime": 0,
             "genres": [
                "Drama"
             ],
             "summary": "A story of three escort girls living in Ikebukuro, Tokyo. They work at the same escort service while feeling lonely in their urban lives.",
             "description_full": "A story of three escort girls living in Ikebukuro, Tokyo. They work at the same escort service while feeling lonely in their urban lives.",
             "synopsis": "A story of three escort girls living in Ikebukuro, Tokyo. They work at the same escort service while feeling lonely in their urban lives.",
             "yt_trailer_code": "HVdFM3lFOXY",
             "language": "English",
             "mpa_rating": "",
             "background_image": "https://yts.mx/assets/images/movies/dawn_of_the_felines_2017/background.jpg",
             "background_image_original": "https://yts.mx/assets/images/movies/dawn_of_the_felines_2017/background.jpg",
             "small_cover_image": "https://yts.mx/assets/images/movies/dawn_of_the_felines_2017/small-cover.jpg",
             "medium_cover_image": "https://yts.mx/assets/images/movies/dawn_of_the_felines_2017/medium-cover.jpg",
             "large_cover_image": "https://yts.mx/assets/images/movies/dawn_of_the_felines_2017/large-cover.jpg",
             "state": "ok",
             "torrents": [
                {
                   "url": "https://yts.mx/torrent/download/1E69028CB95B0752528228A1B0F24026C810C25F",
                   "hash": "1E69028CB95B0752528228A1B0F24026C810C25F",
                   "quality": "720p",
                   "type": "bluray",
                   "seeds": 0,
                   "peers": 0,
                   "size": "781.39 MB",
                   "size_bytes": 819346801,
                   "date_uploaded": "2020-03-05 16:00:55",
                   "date_uploaded_unix": 1583420455
                },
                {
                   "url": "https://yts.mx/torrent/download/FD23602C8B1CE1BFD32EB4FD313F34EF80F2E821",
                   "hash": "FD23602C8B1CE1BFD32EB4FD313F34EF80F2E821",
                   "quality": "1080p",
                   "type": "bluray",
                   "seeds": 0,
                   "peers": 0,
                   "size": "1.51 GB",
                   "size_bytes": 1621350154,
                   "date_uploaded": "2020-03-05 17:39:44",
                   "date_uploaded_unix": 1583426384
                }
             ],
             "date_uploaded": "2020-03-05 16:00:55",
             "date_uploaded_unix": 1583420455
          },
          {
             "id": 15767,
             "url": "https://yts.mx/movie/battle-of-the-coral-sea-1959",
             "imdb_code": "tt0052606",
             "title": "Battle of the Coral Sea",
             "title_english": "Battle of the Coral Sea",
             "title_long": "Battle of the Coral Sea (1959)",
             "slug": "battle-of-the-coral-sea-1959",
             "year": 1959,
             "rating": 5.6,
             "runtime": 86,
             "genres": [
                "Action",
                "Drama",
                "Romance",
                "War"
             ],
             "summary": "In 1942 submarine commander Jeff Conway secretly photographs Japanese aircraft carriers in the Coral Sea.When his submarine is damaged Conway is forced to surrender to the Japanese.Taken to a Japanese interrogation camp Commander Conway and his submarine crew plan their escape.Their mission is dangerous but staying in the Japanese POW camp could be worse.",
             "description_full": "In 1942 submarine commander Jeff Conway secretly photographs Japanese aircraft carriers in the Coral Sea.When his submarine is damaged Conway is forced to surrender to the Japanese.Taken to a Japanese interrogation camp Commander Conway and his submarine crew plan their escape.Their mission is dangerous but staying in the Japanese POW camp could be worse.",
             "synopsis": "In 1942 submarine commander Jeff Conway secretly photographs Japanese aircraft carriers in the Coral Sea.When his submarine is damaged Conway is forced to surrender to the Japanese.Taken to a Japanese interrogation camp Commander Conway and his submarine crew plan their escape.Their mission is dangerous but staying in the Japanese POW camp could be worse.",
             "yt_trailer_code": "",
             "language": "English",
             "mpa_rating": "",
             "background_image": "https://yts.mx/assets/images/movies/battle_of_the_coral_sea_1959/background.jpg",
             "background_image_original": "https://yts.mx/assets/images/movies/battle_of_the_coral_sea_1959/background.jpg",
             "small_cover_image": "https://yts.mx/assets/images/movies/battle_of_the_coral_sea_1959/small-cover.jpg",
             "medium_cover_image": "https://yts.mx/assets/images/movies/battle_of_the_coral_sea_1959/medium-cover.jpg",
             "large_cover_image": "https://yts.mx/assets/images/movies/battle_of_the_coral_sea_1959/large-cover.jpg",
             "state": "ok",
             "torrents": [
                {
                   "url": "https://yts.mx/torrent/download/457F76C0C6C3EA4DEB12309C8D91E5E7B759E8D8",
                   "hash": "457F76C0C6C3EA4DEB12309C8D91E5E7B759E8D8",
                   "quality": "720p",
                   "type": "web",
                   "seeds": 44,
                   "peers": 27,
                   "size": "796.79 MB",
                   "size_bytes": 835494871,
                   "date_uploaded": "2020-03-05 13:04:00",
                   "date_uploaded_unix": 1583409840
                },
                {
                   "url": "https://yts.mx/torrent/download/09B06026DC6A30024765AA2DEC5BE98F9964817F",
                   "hash": "09B06026DC6A30024765AA2DEC5BE98F9964817F",
                   "quality": "1080p",
                   "type": "web",
                   "seeds": 0,
                   "peers": 0,
                   "size": "1.44 GB",
                   "size_bytes": 1546188227,
                   "date_uploaded": "2020-03-05 15:09:25",
                   "date_uploaded_unix": 1583417365
                }
             ],
             "date_uploaded": "2020-03-05 13:04:00",
             "date_uploaded_unix": 1583409840
          },
          {
             "id": 15766,
             "url": "https://yts.mx/movie/the-seeker-the-dark-is-rising-2007",
             "imdb_code": "tt0484562",
             "title": "The Seeker: The Dark Is Rising",
             "title_english": "The Seeker: The Dark Is Rising",
             "title_long": "The Seeker: The Dark Is Rising (2007)",
             "slug": "the-seeker-the-dark-is-rising-2007",
             "year": 2007,
             "rating": 4.8,
             "runtime": 99,
             "genres": [
                "Adventure",
                "Drama",
                "Family",
                "Fantasy",
                "Thriller"
             ],
             "summary": "The film tells the story of Will Stanton, a young man who learns he is the last of a group of warriors who have dedicated their lives to fighting the forces of the Dark. Traveling back and forth through time, Will discovers a series of clues which lead him into a showdown with forces of unimaginable power. With the Dark once again rising, the future of the world rests in Will's hands.",
             "description_full": "The film tells the story of Will Stanton, a young man who learns he is the last of a group of warriors who have dedicated their lives to fighting the forces of the Dark. Traveling back and forth through time, Will discovers a series of clues which lead him into a showdown with forces of unimaginable power. With the Dark once again rising, the future of the world rests in Will's hands.",
             "synopsis": "The film tells the story of Will Stanton, a young man who learns he is the last of a group of warriors who have dedicated their lives to fighting the forces of the Dark. Traveling back and forth through time, Will discovers a series of clues which lead him into a showdown with forces of unimaginable power. With the Dark once again rising, the future of the world rests in Will's hands.",
             "yt_trailer_code": "fDCwHOPLUr4",
             "language": "English",
             "mpa_rating": "PG",
             "background_image": "https://yts.mx/assets/images/movies/the_seeker_the_dark_is_rising_2007/background.jpg",
             "background_image_original": "https://yts.mx/assets/images/movies/the_seeker_the_dark_is_rising_2007/background.jpg",
             "small_cover_image": "https://yts.mx/assets/images/movies/the_seeker_the_dark_is_rising_2007/small-cover.jpg",
             "medium_cover_image": "https://yts.mx/assets/images/movies/the_seeker_the_dark_is_rising_2007/medium-cover.jpg",
             "large_cover_image": "https://yts.mx/assets/images/movies/the_seeker_the_dark_is_rising_2007/large-cover.jpg",
             "state": "ok",
             "torrents": [
                {
                   "url": "https://yts.mx/torrent/download/EA64905D787C088998773BD38FE6DD1EA1AC6EA3",
                   "hash": "EA64905D787C088998773BD38FE6DD1EA1AC6EA3",
                   "quality": "720p",
                   "type": "web",
                   "seeds": 205,
                   "peers": 247,
                   "size": "908.5 MB",
                   "size_bytes": 952631296,
                   "date_uploaded": "2020-03-05 09:14:03",
                   "date_uploaded_unix": 1583396043
                },
                {
                   "url": "https://yts.mx/torrent/download/30B53B0168C14DD1ADFA54A7558F6297ADAA828B",
                   "hash": "30B53B0168C14DD1ADFA54A7558F6297ADAA828B",
                   "quality": "1080p",
                   "type": "web",
                   "seeds": 132,
                   "peers": 147,
                   "size": "1.76 GB",
                   "size_bytes": 1889785610,
                   "date_uploaded": "2020-03-05 10:55:00",
                   "date_uploaded_unix": 1583402100
                }
             ],
             "date_uploaded": "2020-03-05 09:14:03",
             "date_uploaded_unix": 1583396043
          },
          {
             "id": 15765,
             "url": "https://yts.mx/movie/little-women-2019",
             "imdb_code": "tt3281548",
             "title": "Little Women",
             "title_english": "Little Women",
             "title_long": "Little Women (2019)",
             "slug": "little-women-2019",
             "year": 2019,
             "rating": 8,
             "runtime": 135,
             "genres": [
                "Drama",
                "Romance"
             ],
             "summary": "In the years after the Civil War, Jo March lives in New York and makes her living as a writer, while her sister Amy studies painting in Paris. Amy has a chance encounter with Theodore, a childhood crush who proposed to Jo but was ultimately rejected. Their oldest sibling, Meg, is married to a schoolteacher, while shy sister Beth develops a devastating illness that brings the family back together.",
             "description_full": "In the years after the Civil War, Jo March lives in New York and makes her living as a writer, while her sister Amy studies painting in Paris. Amy has a chance encounter with Theodore, a childhood crush who proposed to Jo but was ultimately rejected. Their oldest sibling, Meg, is married to a schoolteacher, while shy sister Beth develops a devastating illness that brings the family back together.",
             "synopsis": "In the years after the Civil War, Jo March lives in New York and makes her living as a writer, while her sister Amy studies painting in Paris. Amy has a chance encounter with Theodore, a childhood crush who proposed to Jo but was ultimately rejected. Their oldest sibling, Meg, is married to a schoolteacher, while shy sister Beth develops a devastating illness that brings the family back together.",
             "yt_trailer_code": "AST2-4db4ic",
             "language": "English",
             "mpa_rating": "PG",
             "background_image": "https://yts.mx/assets/images/movies/little_women_2019/background.jpg",
             "background_image_original": "https://yts.mx/assets/images/movies/little_women_2019/background.jpg",
             "small_cover_image": "https://yts.mx/assets/images/movies/little_women_2019/small-cover.jpg",
             "medium_cover_image": "https://yts.mx/assets/images/movies/little_women_2019/medium-cover.jpg",
             "large_cover_image": "https://yts.mx/assets/images/movies/little_women_2019/large-cover.jpg",
             "state": "ok",
             "torrents": [
                {
                   "url": "https://yts.mx/torrent/download/B53A5EBEFE69CE59AEDFC09F420C2E7BC7C8BA78",
                   "hash": "B53A5EBEFE69CE59AEDFC09F420C2E7BC7C8BA78",
                   "quality": "720p",
                   "type": "web",
                   "seeds": 1333,
                   "peers": 2489,
                   "size": "1.21 GB",
                   "size_bytes": 1299227607,
                   "date_uploaded": "2020-03-05 05:57:49",
                   "date_uploaded_unix": 1583384269
                },
                {
                   "url": "https://yts.mx/torrent/download/61ED8F7EF4308B042D54703FA8806B7457EF2945",
                   "hash": "61ED8F7EF4308B042D54703FA8806B7457EF2945",
                   "quality": "1080p",
                   "type": "web",
                   "seeds": 819,
                   "peers": 1735,
                   "size": "2.4 GB",
                   "size_bytes": 2576980378,
                   "date_uploaded": "2020-03-05 08:21:32",
                   "date_uploaded_unix": 1583392892
                }
             ],
             "date_uploaded": "2020-03-05 05:57:49",
             "date_uploaded_unix": 1583384269
          },
          {
             "id": 15764,
             "url": "https://yts.mx/movie/down-to-earth-2001",
             "imdb_code": "tt0231775",
             "title": "Down to Earth",
             "title_english": "Down to Earth",
             "title_long": "Down to Earth (2001)",
             "slug": "down-to-earth-2001",
             "year": 2001,
             "rating": 5.5,
             "runtime": 87,
             "genres": [
                "Comedy",
                "Fantasy"
             ],
             "summary": "It seems everyone is trying to get into heaven; at least those whose time is up. For Lance Barton, a struggling comedian and bicycle messenger, it's the last thing on his mind. His due date upstairs is 50 years away. In the meantime, he's got big dreams to pursue on Earth, such as landing a slot at the final Amateur Night Contest at the famed Apollo Theatre. Lance's has one little problem though - he ain't that funny. Thanks to an over-cautious emissary from heaven, Mr. Keyes, he's going to get hit (literally) with a much bigger problem. Showing that even God has difficulty finding good help these days, the inept minion mistakenly plucks Lance from a traffic accident - before it takes place. Transporting him to the Pearly Gates, or more accurately, the velvet roped-lines of the hottest club around, the error is finally addressed by Mr. King, the streetwise, no-nonsense head angel who manages the place from his plush windowed office. Since returning to his own body on Earth is ...",
             "description_full": "It seems everyone is trying to get into heaven; at least those whose time is up. For Lance Barton, a struggling comedian and bicycle messenger, it's the last thing on his mind. His due date upstairs is 50 years away. In the meantime, he's got big dreams to pursue on Earth, such as landing a slot at the final Amateur Night Contest at the famed Apollo Theatre. Lance's has one little problem though - he ain't that funny. Thanks to an over-cautious emissary from heaven, Mr. Keyes, he's going to get hit (literally) with a much bigger problem. Showing that even God has difficulty finding good help these days, the inept minion mistakenly plucks Lance from a traffic accident - before it takes place. Transporting him to the Pearly Gates, or more accurately, the velvet roped-lines of the hottest club around, the error is finally addressed by Mr. King, the streetwise, no-nonsense head angel who manages the place from his plush windowed office. Since returning to his own body on Earth is ...",
             "synopsis": "It seems everyone is trying to get into heaven; at least those whose time is up. For Lance Barton, a struggling comedian and bicycle messenger, it's the last thing on his mind. His due date upstairs is 50 years away. In the meantime, he's got big dreams to pursue on Earth, such as landing a slot at the final Amateur Night Contest at the famed Apollo Theatre. Lance's has one little problem though - he ain't that funny. Thanks to an over-cautious emissary from heaven, Mr. Keyes, he's going to get hit (literally) with a much bigger problem. Showing that even God has difficulty finding good help these days, the inept minion mistakenly plucks Lance from a traffic accident - before it takes place. Transporting him to the Pearly Gates, or more accurately, the velvet roped-lines of the hottest club around, the error is finally addressed by Mr. King, the streetwise, no-nonsense head angel who manages the place from his plush windowed office. Since returning to his own body on Earth is ...",
             "yt_trailer_code": "YB2yDsL9BWc",
             "language": "English",
             "mpa_rating": "PG-13",
             "background_image": "https://yts.mx/assets/images/movies/down_to_earth_2001/background.jpg",
             "background_image_original": "https://yts.mx/assets/images/movies/down_to_earth_2001/background.jpg",
             "small_cover_image": "https://yts.mx/assets/images/movies/down_to_earth_2001/small-cover.jpg",
             "medium_cover_image": "https://yts.mx/assets/images/movies/down_to_earth_2001/medium-cover.jpg",
             "large_cover_image": "https://yts.mx/assets/images/movies/down_to_earth_2001/large-cover.jpg",
             "state": "ok",
             "torrents": [
                {
                   "url": "https://yts.mx/torrent/download/0BBF18477594AD5286AE1B7530BF60DD197F88E7",
                   "hash": "0BBF18477594AD5286AE1B7530BF60DD197F88E7",
                   "quality": "720p",
                   "type": "web",
                   "seeds": 124,
                   "peers": 185,
                   "size": "801.47 MB",
                   "size_bytes": 840402207,
                   "date_uploaded": "2020-03-05 16:15:27",
                   "date_uploaded_unix": 1583421327
                },
                {
                   "url": "https://yts.mx/torrent/download/4133E0D1B4A0F6332C7ADE8C4E1450921FC7C0CC",
                   "hash": "4133E0D1B4A0F6332C7ADE8C4E1450921FC7C0CC",
                   "quality": "1080p",
                   "type": "web",
                   "seeds": 0,
                   "peers": 0,
                   "size": "1.55 GB",
                   "size_bytes": 1664299827,
                   "date_uploaded": "2020-03-05 18:33:34",
                   "date_uploaded_unix": 1583429614
                }
             ],
             "date_uploaded": "2020-03-05 16:15:27",
             "date_uploaded_unix": 1583421327
          },
          {
             "id": 15763,
             "url": "https://yts.mx/movie/miracle-on-34th-street-1947",
             "imdb_code": "tt0039628",
             "title": "Miracle on 34th Street",
             "title_english": "Miracle on 34th Street",
             "title_long": "Miracle on 34th Street (1947)",
             "slug": "miracle-on-34th-street-1947",
             "year": 1947,
             "rating": 7.9,
             "runtime": 96,
             "genres": [
                "Comedy",
                "Drama",
                "Family"
             ],
             "summary": "At the Macy's Department Store Thanksgiving Day parade, the actor playing Santa is discovered to be drunk by a whiskered old man. Doris Walker, the no nonsense special events director, persuades the old man to take his place. The old man proves to be a sensation and is quickly recruited to be the store Santa at the main Macy's outlet. While he is successful, Ms. Walker learns that he calls himself Kris Kringle and he claims to be the actual Santa Claus. Despite reassurances by Kringle's doctor that he is harmless, Doris still has misgivings, especially when she has cynically trained herself, and especially her daughter, Susan, to reject all notions of belief and fantasy. And yet, people, especially Susan, begin to notice there is something special about Kris and his determination to advance the true spirit of Christmas amidst the rampant commercialism around him and succeeding in improbable ways. When a raucous conflict with the store's cruelly incompetent psychologist erupts, Kris ...",
             "description_full": "At the Macy's Department Store Thanksgiving Day parade, the actor playing Santa is discovered to be drunk by a whiskered old man. Doris Walker, the no nonsense special events director, persuades the old man to take his place. The old man proves to be a sensation and is quickly recruited to be the store Santa at the main Macy's outlet. While he is successful, Ms. Walker learns that he calls himself Kris Kringle and he claims to be the actual Santa Claus. Despite reassurances by Kringle's doctor that he is harmless, Doris still has misgivings, especially when she has cynically trained herself, and especially her daughter, Susan, to reject all notions of belief and fantasy. And yet, people, especially Susan, begin to notice there is something special about Kris and his determination to advance the true spirit of Christmas amidst the rampant commercialism around him and succeeding in improbable ways. When a raucous conflict with the store's cruelly incompetent psychologist erupts, Kris ...",
             "synopsis": "At the Macy's Department Store Thanksgiving Day parade, the actor playing Santa is discovered to be drunk by a whiskered old man. Doris Walker, the no nonsense special events director, persuades the old man to take his place. The old man proves to be a sensation and is quickly recruited to be the store Santa at the main Macy's outlet. While he is successful, Ms. Walker learns that he calls himself Kris Kringle and he claims to be the actual Santa Claus. Despite reassurances by Kringle's doctor that he is harmless, Doris still has misgivings, especially when she has cynically trained herself, and especially her daughter, Susan, to reject all notions of belief and fantasy. And yet, people, especially Susan, begin to notice there is something special about Kris and his determination to advance the true spirit of Christmas amidst the rampant commercialism around him and succeeding in improbable ways. When a raucous conflict with the store's cruelly incompetent psychologist erupts, Kris ...",
             "yt_trailer_code": "kUwyGo6PQzY",
             "language": "English",
             "mpa_rating": "",
             "background_image": "https://yts.mx/assets/images/movies/miracle_on_34th_street_1947/background.jpg",
             "background_image_original": "https://yts.mx/assets/images/movies/miracle_on_34th_street_1947/background.jpg",
             "small_cover_image": "https://yts.mx/assets/images/movies/miracle_on_34th_street_1947/small-cover.jpg",
             "medium_cover_image": "https://yts.mx/assets/images/movies/miracle_on_34th_street_1947/medium-cover.jpg",
             "large_cover_image": "https://yts.mx/assets/images/movies/miracle_on_34th_street_1947/large-cover.jpg",
             "state": "ok",
             "torrents": [
                {
                   "url": "https://yts.mx/torrent/download/AE32C0096671E1F4B2C430766E5EACD91E1F08F5",
                   "hash": "AE32C0096671E1F4B2C430766E5EACD91E1F08F5",
                   "quality": "720p",
                   "type": "bluray",
                   "seeds": 57,
                   "peers": 43,
                   "size": "886.78 MB",
                   "size_bytes": 929856225,
                   "date_uploaded": "2020-03-05 12:44:15",
                   "date_uploaded_unix": 1583408655
                },
                {
                   "url": "https://yts.mx/torrent/download/36F1027424DB8E4EBD015AFEE79F82E087ED8D06",
                   "hash": "36F1027424DB8E4EBD015AFEE79F82E087ED8D06",
                   "quality": "1080p",
                   "type": "bluray",
                   "seeds": 0,
                   "peers": 0,
                   "size": "1.71 GB",
                   "size_bytes": 1836098519,
                   "date_uploaded": "2020-03-05 15:03:56",
                   "date_uploaded_unix": 1583417036
                }
             ],
             "date_uploaded": "2020-03-05 12:44:15",
             "date_uploaded_unix": 1583408655
          },
          {
             "id": 15762,
             "url": "https://yts.mx/movie/the-philadelphia-story-1940",
             "imdb_code": "tt0032904",
             "title": "The Philadelphia Story",
             "title_english": "The Philadelphia Story",
             "title_long": "The Philadelphia Story (1940)",
             "slug": "the-philadelphia-story-1940",
             "year": 1940,
             "rating": 7.9,
             "runtime": 112,
             "genres": [
                "Comedy",
                "Romance"
             ],
             "summary": "Philadelphia socialites Tracy Lord and C.K. Dexter Haven married impulsively, with their marriage and subsequent divorce being equally passionate. They broke up when Dexter's drinking became excessive, it a mechanism to cope with Tracy's unforgiving manner to the imperfect, imperfections which Dexter admits he readily has. Two years after their break-up, Tracy is about to remarry, the ceremony to take place at the Lord mansion. Tracy's bridegroom is nouveau riche businessman and aspiring politician George Kittredge, who is otherwise a rather ordinary man and who idolizes Tracy. The day before the wedding, three unexpected guests show up at the Lord mansion: Macaulay Connor (Mike to his friends), Elizabeth Imbrie - the two who are friends of Tracy's absent brother, Junius- and Dexter himself. Dexter, an employee of the tabloid Spy magazine, made a deal with its publisher and editor Sidney Kidd to get a story on Tracy's wedding - the wedding of the year - in return for Kidd not ...",
             "description_full": "Philadelphia socialites Tracy Lord and C.K. Dexter Haven married impulsively, with their marriage and subsequent divorce being equally passionate. They broke up when Dexter's drinking became excessive, it a mechanism to cope with Tracy's unforgiving manner to the imperfect, imperfections which Dexter admits he readily has. Two years after their break-up, Tracy is about to remarry, the ceremony to take place at the Lord mansion. Tracy's bridegroom is nouveau riche businessman and aspiring politician George Kittredge, who is otherwise a rather ordinary man and who idolizes Tracy. The day before the wedding, three unexpected guests show up at the Lord mansion: Macaulay Connor (Mike to his friends), Elizabeth Imbrie - the two who are friends of Tracy's absent brother, Junius- and Dexter himself. Dexter, an employee of the tabloid Spy magazine, made a deal with its publisher and editor Sidney Kidd to get a story on Tracy's wedding - the wedding of the year - in return for Kidd not ...",
             "synopsis": "Philadelphia socialites Tracy Lord and C.K. Dexter Haven married impulsively, with their marriage and subsequent divorce being equally passionate. They broke up when Dexter's drinking became excessive, it a mechanism to cope with Tracy's unforgiving manner to the imperfect, imperfections which Dexter admits he readily has. Two years after their break-up, Tracy is about to remarry, the ceremony to take place at the Lord mansion. Tracy's bridegroom is nouveau riche businessman and aspiring politician George Kittredge, who is otherwise a rather ordinary man and who idolizes Tracy. The day before the wedding, three unexpected guests show up at the Lord mansion: Macaulay Connor (Mike to his friends), Elizabeth Imbrie - the two who are friends of Tracy's absent brother, Junius- and Dexter himself. Dexter, an employee of the tabloid Spy magazine, made a deal with its publisher and editor Sidney Kidd to get a story on Tracy's wedding - the wedding of the year - in return for Kidd not ...",
             "yt_trailer_code": "KWbee8U1EOI",
             "language": "English",
             "mpa_rating": "",
             "background_image": "https://yts.mx/assets/images/movies/the_philadelphia_story_1940/background.jpg",
             "background_image_original": "https://yts.mx/assets/images/movies/the_philadelphia_story_1940/background.jpg",
             "small_cover_image": "https://yts.mx/assets/images/movies/the_philadelphia_story_1940/small-cover.jpg",
             "medium_cover_image": "https://yts.mx/assets/images/movies/the_philadelphia_story_1940/medium-cover.jpg",
             "large_cover_image": "https://yts.mx/assets/images/movies/the_philadelphia_story_1940/large-cover.jpg",
             "state": "ok",
             "torrents": [
                {
                   "url": "https://yts.mx/torrent/download/EFCE41D6047FABB55F226206E58F12CE069A8E76",
                   "hash": "EFCE41D6047FABB55F226206E58F12CE069A8E76",
                   "quality": "720p",
                   "type": "bluray",
                   "seeds": 120,
                   "peers": 81,
                   "size": "1.01 GB",
                   "size_bytes": 1084479242,
                   "date_uploaded": "2020-03-05 08:47:02",
                   "date_uploaded_unix": 1583394422
                },
                {
                   "url": "https://yts.mx/torrent/download/6C2AA2CE69D34F268C20BE38D4EF5F026E034FB6",
                   "hash": "6C2AA2CE69D34F268C20BE38D4EF5F026E034FB6",
                   "quality": "1080p",
                   "type": "bluray",
                   "seeds": 107,
                   "peers": 102,
                   "size": "1.87 GB",
                   "size_bytes": 2007897211,
                   "date_uploaded": "2020-03-05 11:32:43",
                   "date_uploaded_unix": 1583404363
                }
             ],
             "date_uploaded": "2020-03-05 08:47:02",
             "date_uploaded_unix": 1583394422
          },
          {
             "id": 15761,
             "url": "https://yts.mx/movie/sidelined-2018",
             "imdb_code": "tt8352112",
             "title": "Sidelined",
             "title_english": "Sidelined",
             "title_long": "Sidelined (2018)",
             "slug": "sidelined-2018",
             "year": 2018,
             "rating": 7.2,
             "runtime": 40,
             "genres": [
                "Documentary"
             ],
             "summary": "NFL Cheerleaders find themselves embroiled in controversy and constant media coverage after they pose for Playboy magazine in 1978.",
             "description_full": "NFL Cheerleaders find themselves embroiled in controversy and constant media coverage after they pose for Playboy magazine in 1978.",
             "synopsis": "NFL Cheerleaders find themselves embroiled in controversy and constant media coverage after they pose for Playboy magazine in 1978.",
             "yt_trailer_code": "",
             "language": "English",
             "mpa_rating": "",
             "background_image": "https://yts.mx/assets/images/movies/sidelined_2018/background.jpg",
             "background_image_original": "https://yts.mx/assets/images/movies/sidelined_2018/background.jpg",
             "small_cover_image": "https://yts.mx/assets/images/movies/sidelined_2018/small-cover.jpg",
             "medium_cover_image": "https://yts.mx/assets/images/movies/sidelined_2018/medium-cover.jpg",
             "large_cover_image": "https://yts.mx/assets/images/movies/sidelined_2018/large-cover.jpg",
             "state": "ok",
             "torrents": [
                {
                   "url": "https://yts.mx/torrent/download/E2243C5773AF3648F7B2269B61F0481F9616698C",
                   "hash": "E2243C5773AF3648F7B2269B61F0481F9616698C",
                   "quality": "720p",
                   "type": "web",
                   "seeds": 61,
                   "peers": 45,
                   "size": "790.53 MB",
                   "size_bytes": 828930785,
                   "date_uploaded": "2020-03-05 05:15:50",
                   "date_uploaded_unix": 1583381750
                },
                {
                   "url": "https://yts.mx/torrent/download/7FE2BE7E947807B461C21E5B0F5687DAC93884F3",
                   "hash": "7FE2BE7E947807B461C21E5B0F5687DAC93884F3",
                   "quality": "1080p",
                   "type": "web",
                   "seeds": 52,
                   "peers": 38,
                   "size": "1.43 GB",
                   "size_bytes": 1535450808,
                   "date_uploaded": "2020-03-05 07:23:39",
                   "date_uploaded_unix": 1583389419
                }
             ],
             "date_uploaded": "2020-03-05 05:15:50",
             "date_uploaded_unix": 1583381750
          },
          {
             "id": 15757,
             "url": "https://yts.mx/movie/impossible-monsters-2019",
             "imdb_code": "tt4328094",
             "title": "Impossible Monsters",
             "title_english": "Impossible Monsters",
             "title_long": "Impossible Monsters (2019)",
             "slug": "impossible-monsters-2019",
             "year": 2019,
             "rating": 6.1,
             "runtime": 84,
             "genres": [
                "Thriller"
             ],
             "summary": "An ambitious professor becomes caught up in the murder of a participant in his sleep study, as the lines between dreams and reality blur.",
             "description_full": "An ambitious professor becomes caught up in the murder of a participant in his sleep study, as the lines between dreams and reality blur.",
             "synopsis": "An ambitious professor becomes caught up in the murder of a participant in his sleep study, as the lines between dreams and reality blur.",
             "yt_trailer_code": "krKOhF8y83U",
             "language": "English",
             "mpa_rating": "",
             "background_image": "https://yts.mx/assets/images/movies/impossible_monsters_2019/background.jpg",
             "background_image_original": "https://yts.mx/assets/images/movies/impossible_monsters_2019/background.jpg",
             "small_cover_image": "https://yts.mx/assets/images/movies/impossible_monsters_2019/small-cover.jpg",
             "medium_cover_image": "https://yts.mx/assets/images/movies/impossible_monsters_2019/medium-cover.jpg",
             "large_cover_image": "https://yts.mx/assets/images/movies/impossible_monsters_2019/large-cover.jpg",
             "state": "ok",
             "torrents": [
                {
                   "url": "https://yts.mx/torrent/download/3C7B7930FCD3424F5949E8597D3321F2B7DECBCC",
                   "hash": "3C7B7930FCD3424F5949E8597D3321F2B7DECBCC",
                   "quality": "720p",
                   "type": "web",
                   "seeds": 61,
                   "peers": 36,
                   "size": "770.14 MB",
                   "size_bytes": 807550321,
                   "date_uploaded": "2020-03-05 02:13:35",
                   "date_uploaded_unix": 1583370815
                },
                {
                   "url": "https://yts.mx/torrent/download/8A268CEC9D20FD4F673F8F2BC12372F0B92EDA76",
                   "hash": "8A268CEC9D20FD4F673F8F2BC12372F0B92EDA76",
                   "quality": "1080p",
                   "type": "web",
                   "seeds": 333,
                   "peers": 204,
                   "size": "1.49 GB",
                   "size_bytes": 1599875318,
                   "date_uploaded": "2020-03-05 04:07:13",
                   "date_uploaded_unix": 1583377633
                }
             ],
             "date_uploaded": "2020-03-05 02:13:35",
             "date_uploaded_unix": 1583370815
          },
          {
             "id": 15755,
             "url": "https://yts.mx/movie/brotherhood-2019",
             "imdb_code": "tt7220118",
             "title": "Brotherhood",
             "title_english": "Brotherhood",
             "title_long": "Brotherhood (2019)",
             "slug": "brotherhood-2019",
             "year": 2019,
             "rating": 5.3,
             "runtime": 96,
             "genres": [
                "Drama"
             ],
             "summary": "In 1926, a band of teenage boys arrive at Long Point Camp for the adventure of their lives. When their canoe capsizes in a freak summer storm, their holiday descends into a soul-shuddering fight for survival.",
             "description_full": "In 1926, a band of teenage boys arrive at Long Point Camp for the adventure of their lives. When their canoe capsizes in a freak summer storm, their holiday descends into a soul-shuddering fight for survival.",
             "synopsis": "In 1926, a band of teenage boys arrive at Long Point Camp for the adventure of their lives. When their canoe capsizes in a freak summer storm, their holiday descends into a soul-shuddering fight for survival.",
             "yt_trailer_code": "",
             "language": "English",
             "mpa_rating": "",
             "background_image": "https://yts.mx/assets/images/movies/brotherhood_2019/background.jpg",
             "background_image_original": "https://yts.mx/assets/images/movies/brotherhood_2019/background.jpg",
             "small_cover_image": "https://yts.mx/assets/images/movies/brotherhood_2019/small-cover.jpg",
             "medium_cover_image": "https://yts.mx/assets/images/movies/brotherhood_2019/medium-cover.jpg",
             "large_cover_image": "https://yts.mx/assets/images/movies/brotherhood_2019/large-cover.jpg",
             "state": "ok",
             "torrents": [
                {
                   "url": "https://yts.mx/torrent/download/2C6439A82200374BE57E1F2B530C317B0CF6AA24",
                   "hash": "2C6439A82200374BE57E1F2B530C317B0CF6AA24",
                   "quality": "720p",
                   "type": "web",
                   "seeds": 318,
                   "peers": 209,
                   "size": "888.26 MB",
                   "size_bytes": 931408118,
                   "date_uploaded": "2020-03-04 23:11:46",
                   "date_uploaded_unix": 1583359906
                },
                {
                   "url": "https://yts.mx/torrent/download/FE1159B3823EBF535738896033573AB9242544F4",
                   "hash": "FE1159B3823EBF535738896033573AB9242544F4",
                   "quality": "1080p",
                   "type": "web",
                   "seeds": 222,
                   "peers": 152,
                   "size": "1.72 GB",
                   "size_bytes": 1846835937,
                   "date_uploaded": "2020-03-05 01:15:32",
                   "date_uploaded_unix": 1583367332
                }
             ],
             "date_uploaded": "2020-03-04 23:11:46",
             "date_uploaded_unix": 1583359906
          },
          {
             "id": 15754,
             "url": "https://yts.mx/movie/a-night-at-the-opera-1935",
             "imdb_code": "tt0026778",
             "title": "A Night at the Opera",
             "title_english": "A Night at the Opera",
             "title_long": "A Night at the Opera (1935)",
             "slug": "a-night-at-the-opera-1935",
             "year": 1935,
             "rating": 7.9,
             "runtime": 96,
             "genres": [
                "Comedy",
                "Music",
                "Musical"
             ],
             "summary": "The Marx Brothers take on high society. Two lovers who are both in opera are prevented from being together by the man's lack of acceptance as an operatic tenor. Pulling several typical Marx Brothers' stunts, they arrange for the normal tenor to be absent so that the young lover can get his chance.",
             "description_full": "The Marx Brothers take on high society. Two lovers who are both in opera are prevented from being together by the man's lack of acceptance as an operatic tenor. Pulling several typical Marx Brothers' stunts, they arrange for the normal tenor to be absent so that the young lover can get his chance.",
             "synopsis": "The Marx Brothers take on high society. Two lovers who are both in opera are prevented from being together by the man's lack of acceptance as an operatic tenor. Pulling several typical Marx Brothers' stunts, they arrange for the normal tenor to be absent so that the young lover can get his chance.",
             "yt_trailer_code": "CUS-FnxUJb8",
             "language": "English",
             "mpa_rating": "",
             "background_image": "https://yts.mx/assets/images/movies/a_night_at_the_opera_1935/background.jpg",
             "background_image_original": "https://yts.mx/assets/images/movies/a_night_at_the_opera_1935/background.jpg",
             "small_cover_image": "https://yts.mx/assets/images/movies/a_night_at_the_opera_1935/small-cover.jpg",
             "medium_cover_image": "https://yts.mx/assets/images/movies/a_night_at_the_opera_1935/medium-cover.jpg",
             "large_cover_image": "https://yts.mx/assets/images/movies/a_night_at_the_opera_1935/large-cover.jpg",
             "state": "ok",
             "torrents": [
                {
                   "url": "https://yts.mx/torrent/download/182AB40B17AD2604610BB7429090B31EF0AA627D",
                   "hash": "182AB40B17AD2604610BB7429090B31EF0AA627D",
                   "quality": "720p",
                   "type": "web",
                   "seeds": 102,
                   "peers": 43,
                   "size": "837.77 MB",
                   "size_bytes": 878465516,
                   "date_uploaded": "2020-03-04 19:42:03",
                   "date_uploaded_unix": 1583347323
                },
                {
                   "url": "https://yts.mx/torrent/download/411A7A67590A0A4FE4F1BD71A196FA8734870232",
                   "hash": "411A7A67590A0A4FE4F1BD71A196FA8734870232",
                   "quality": "1080p",
                   "type": "web",
                   "seeds": 180,
                   "peers": 82,
                   "size": "1.52 GB",
                   "size_bytes": 1632087572,
                   "date_uploaded": "2020-03-04 22:05:16",
                   "date_uploaded_unix": 1583355916
                }
             ],
             "date_uploaded": "2020-03-04 19:42:03",
             "date_uploaded_unix": 1583347323
          },
          {
             "id": 15753,
             "url": "https://yts.mx/movie/the-dare-2019",
             "imdb_code": "tt6270640",
             "title": "The Dare",
             "title_english": "The Dare",
             "title_long": "The Dare (2019)",
             "slug": "the-dare-2019",
             "year": 2019,
             "rating": 4.6,
             "runtime": 97,
             "genres": [
                "Horror",
                "Mystery",
                "Thriller"
             ],
             "summary": "A rare family night takes a brutal twist when a workoholic father awakens in a basement with 3 other prisoners. As their vengeful captor runs riot, the father engages in a twisted battle to solve the puzzle to his past and save his family's future.",
             "description_full": "A rare family night takes a brutal twist when a workoholic father awakens in a basement with 3 other prisoners. As their vengeful captor runs riot, the father engages in a twisted battle to solve the puzzle to his past and save his family's future.",
             "synopsis": "A rare family night takes a brutal twist when a workoholic father awakens in a basement with 3 other prisoners. As their vengeful captor runs riot, the father engages in a twisted battle to solve the puzzle to his past and save his family's future.",
             "yt_trailer_code": "VVatlBgu3Ns",
             "language": "English",
             "mpa_rating": "R",
             "background_image": "https://yts.mx/assets/images/movies/the_dare_2019/background.jpg",
             "background_image_original": "https://yts.mx/assets/images/movies/the_dare_2019/background.jpg",
             "small_cover_image": "https://yts.mx/assets/images/movies/the_dare_2019/small-cover.jpg",
             "medium_cover_image": "https://yts.mx/assets/images/movies/the_dare_2019/medium-cover.jpg",
             "large_cover_image": "https://yts.mx/assets/images/movies/the_dare_2019/large-cover.jpg",
             "state": "ok",
             "torrents": [
                {
                   "url": "https://yts.mx/torrent/download/5B48848751FEAC9B043B39A945C062BCE9E2445B",
                   "hash": "5B48848751FEAC9B043B39A945C062BCE9E2445B",
                   "quality": "720p",
                   "type": "web",
                   "seeds": 312,
                   "peers": 277,
                   "size": "884.5 MB",
                   "size_bytes": 927465472,
                   "date_uploaded": "2020-03-04 23:00:42",
                   "date_uploaded_unix": 1583359242
                },
                {
                   "url": "https://yts.mx/torrent/download/3EFA3AB9F0F1E9E1C9681E73E8B2F10E2B4177FA",
                   "hash": "3EFA3AB9F0F1E9E1C9681E73E8B2F10E2B4177FA",
                   "quality": "1080p",
                   "type": "web",
                   "seeds": 254,
                   "peers": 209,
                   "size": "1.71 GB",
                   "size_bytes": 1836098519,
                   "date_uploaded": "2020-03-05 00:45:12",
                   "date_uploaded_unix": 1583365512
                }
             ],
             "date_uploaded": "2020-03-04 23:00:42",
             "date_uploaded_unix": 1583359242
          },
          {
             "id": 15752,
             "url": "https://yts.mx/movie/a-hidden-life-2019",
             "imdb_code": "tt5827916",
             "title": "A Hidden Life",
             "title_english": "A Hidden Life",
             "title_long": "A Hidden Life (2019)",
             "slug": "a-hidden-life-2019",
             "year": 2019,
             "rating": 7.6,
             "runtime": 174,
             "genres": [
                "Biography",
                "Drama",
                "Romance",
                "War"
             ],
             "summary": "Based on real events, A HIDDEN LIFE is the story of an unsung hero, Bl. Franz Jägerstätter, who refused to fight for the Nazis in World War II. When the Austrian peasant farmer is faced with the threat of execution for treason, it is his unwavering faith and his love for his wife, Fani, and children that keeps his spirit alive.",
             "description_full": "Based on real events, A HIDDEN LIFE is the story of an unsung hero, Bl. Franz Jägerstätter, who refused to fight for the Nazis in World War II. When the Austrian peasant farmer is faced with the threat of execution for treason, it is his unwavering faith and his love for his wife, Fani, and children that keeps his spirit alive.",
             "synopsis": "Based on real events, A HIDDEN LIFE is the story of an unsung hero, Bl. Franz Jägerstätter, who refused to fight for the Nazis in World War II. When the Austrian peasant farmer is faced with the threat of execution for treason, it is his unwavering faith and his love for his wife, Fani, and children that keeps his spirit alive.",
             "yt_trailer_code": "qJXmdY4lVR0",
             "language": "English",
             "mpa_rating": "PG-13",
             "background_image": "https://yts.mx/assets/images/movies/a_hidden_life_2019/background.jpg",
             "background_image_original": "https://yts.mx/assets/images/movies/a_hidden_life_2019/background.jpg",
             "small_cover_image": "https://yts.mx/assets/images/movies/a_hidden_life_2019/small-cover.jpg",
             "medium_cover_image": "https://yts.mx/assets/images/movies/a_hidden_life_2019/medium-cover.jpg",
             "large_cover_image": "https://yts.mx/assets/images/movies/a_hidden_life_2019/large-cover.jpg",
             "state": "ok",
             "torrents": [
                {
                   "url": "https://yts.mx/torrent/download/52FDDB76D0E5C7F7497E30F6DB32F6565EABC09E",
                   "hash": "52FDDB76D0E5C7F7497E30F6DB32F6565EABC09E",
                   "quality": "720p",
                   "type": "web",
                   "seeds": 234,
                   "peers": 209,
                   "size": "1.56 GB",
                   "size_bytes": 1675037245,
                   "date_uploaded": "2020-03-04 19:20:39",
                   "date_uploaded_unix": 1583346039
                },
                {
                   "url": "https://yts.mx/torrent/download/F6D8D5F0208921086266ADBAFCAE8F3EE054EE5B",
                   "hash": "F6D8D5F0208921086266ADBAFCAE8F3EE054EE5B",
                   "quality": "1080p",
                   "type": "web",
                   "seeds": 280,
                   "peers": 238,
                   "size": "3.1 GB",
                   "size_bytes": 3328599654,
                   "date_uploaded": "2020-03-04 22:07:30",
                   "date_uploaded_unix": 1583356050
                }
             ],
             "date_uploaded": "2020-03-04 19:20:39",
             "date_uploaded_unix": 1583346039
          },
          {
             "id": 15751,
             "url": "https://yts.mx/movie/richard-jewell-2019",
             "imdb_code": "tt3513548",
             "title": "Richard Jewell",
             "title_english": "Richard Jewell",
             "title_long": "Richard Jewell (2019)",
             "slug": "richard-jewell-2019",
             "year": 2019,
             "rating": 7.5,
             "runtime": 131,
             "genres": [
                "Biography",
                "Crime",
                "Drama"
             ],
             "summary": "American security guard Richard Jewell saves thousands of lives from an exploding bomb at the 1996 Olympics, but is vilified by journalists and the press who falsely reported that he was a terrorist.",
             "description_full": "American security guard Richard Jewell saves thousands of lives from an exploding bomb at the 1996 Olympics, but is vilified by journalists and the press who falsely reported that he was a terrorist.",
             "synopsis": "American security guard Richard Jewell saves thousands of lives from an exploding bomb at the 1996 Olympics, but is vilified by journalists and the press who falsely reported that he was a terrorist.",
             "yt_trailer_code": "gSMxBLlA8qY",
             "language": "English",
             "mpa_rating": "R",
             "background_image": "https://yts.mx/assets/images/movies/richard_jewell_2019/background.jpg",
             "background_image_original": "https://yts.mx/assets/images/movies/richard_jewell_2019/background.jpg",
             "small_cover_image": "https://yts.mx/assets/images/movies/richard_jewell_2019/small-cover.jpg",
             "medium_cover_image": "https://yts.mx/assets/images/movies/richard_jewell_2019/medium-cover.jpg",
             "large_cover_image": "https://yts.mx/assets/images/movies/richard_jewell_2019/large-cover.jpg",
             "state": "ok",
             "torrents": [
                {
                   "url": "https://yts.mx/torrent/download/35AB8F8B80AB0DF7CD4749D48841E000FC0D3E3C",
                   "hash": "35AB8F8B80AB0DF7CD4749D48841E000FC0D3E3C",
                   "quality": "720p",
                   "type": "web",
                   "seeds": 1511,
                   "peers": 1201,
                   "size": "1.17 GB",
                   "size_bytes": 1256277934,
                   "date_uploaded": "2020-03-04 21:29:44",
                   "date_uploaded_unix": 1583353784
                },
                {
                   "url": "https://yts.mx/torrent/download/8679D25AB5B5BEA4239A05CD40BEF27C49C4E453",
                   "hash": "8679D25AB5B5BEA4239A05CD40BEF27C49C4E453",
                   "quality": "1080p",
                   "type": "web",
                   "seeds": 1858,
                   "peers": 1201,
                   "size": "2.32 GB",
                   "size_bytes": 2491081032,
                   "date_uploaded": "2020-03-04 23:52:59",
                   "date_uploaded_unix": 1583362379
                }
             ],
             "date_uploaded": "2020-03-04 21:29:44",
             "date_uploaded_unix": 1583353784
          },
          {
             "id": 15750,
             "url": "https://yts.mx/movie/the-holly-and-the-ivy-1952",
             "imdb_code": "tt0044716",
             "title": "The Holly and the Ivy",
             "title_english": "The Holly and the Ivy",
             "title_long": "The Holly and the Ivy (1952)",
             "slug": "the-holly-and-the-ivy-1952",
             "year": 1952,
             "rating": 7.5,
             "runtime": 83,
             "genres": [
                "Drama"
             ],
             "summary": "A heartwarming tale of an English minister and his family reunited at Christmas time. Their story includes a remembrance of their World War II trials.",
             "description_full": "A heartwarming tale of an English minister and his family reunited at Christmas time. Their story includes a remembrance of their World War II trials.",
             "synopsis": "A heartwarming tale of an English minister and his family reunited at Christmas time. Their story includes a remembrance of their World War II trials.",
             "yt_trailer_code": "dqbSQK6Xzjg",
             "language": "English",
             "mpa_rating": "",
             "background_image": "https://yts.mx/assets/images/movies/the_holly_and_the_ivy_1952/background.jpg",
             "background_image_original": "https://yts.mx/assets/images/movies/the_holly_and_the_ivy_1952/background.jpg",
             "small_cover_image": "https://yts.mx/assets/images/movies/the_holly_and_the_ivy_1952/small-cover.jpg",
             "medium_cover_image": "https://yts.mx/assets/images/movies/the_holly_and_the_ivy_1952/medium-cover.jpg",
             "large_cover_image": "https://yts.mx/assets/images/movies/the_holly_and_the_ivy_1952/large-cover.jpg",
             "state": "ok",
             "torrents": [
                {
                   "url": "https://yts.mx/torrent/download/9D37812337DD607D4FA66637590F19D9B55AD0AB",
                   "hash": "9D37812337DD607D4FA66637590F19D9B55AD0AB",
                   "quality": "720p",
                   "type": "bluray",
                   "seeds": 63,
                   "peers": 50,
                   "size": "737.16 MB",
                   "size_bytes": 772968284,
                   "date_uploaded": "2020-03-05 10:17:18",
                   "date_uploaded_unix": 1583399838
                },
                {
                   "url": "https://yts.mx/torrent/download/1C8059DB468AF4460B91A87853E94FA63C447C5A",
                   "hash": "1C8059DB468AF4460B91A87853E94FA63C447C5A",
                   "quality": "1080p",
                   "type": "bluray",
                   "seeds": 39,
                   "peers": 45,
                   "size": "1.34 GB",
                   "size_bytes": 1438814044,
                   "date_uploaded": "2020-03-05 11:57:21",
                   "date_uploaded_unix": 1583405841
                }
             ],
             "date_uploaded": "2020-03-05 10:17:18",
             "date_uploaded_unix": 1583399838
          },
          {
             "id": 15749,
             "url": "https://yts.mx/movie/votez-bougon-2016",
             "imdb_code": "tt5792762",
             "title": "Votez Bougon",
             "title_english": "Votez Bougon",
             "title_long": "Votez Bougon (2016)",
             "slug": "votez-bougon-2016",
             "year": 2016,
             "rating": 5.3,
             "runtime": 97,
             "genres": [
                "Comedy"
             ],
             "summary": "Encouraged by his family, Paul Bougon decides to enter into politics. He founds, in collaboration with his family, the National Ecourement (Sickness) Party (PEN), which relies on the sale of membership cards and illegal donations. He tries to convince his fellow citizens that through him, change will come. Quebeckers believe in Bougon's promises and elect him Premier of Quebec. Paul then moves with his daughter, his son and his brother to Ottawa, where each of them will have a role to play in Bougon's government. Meanwhile, Rita Bougon, who doubts her husband's love for her, has traveled south with her sister and falls in love with a handsome Cuban named Chico.",
             "description_full": "Encouraged by his family, Paul Bougon decides to enter into politics. He founds, in collaboration with his family, the National Ecourement (Sickness) Party (PEN), which relies on the sale of membership cards and illegal donations. He tries to convince his fellow citizens that through him, change will come. Quebeckers believe in Bougon's promises and elect him Premier of Quebec. Paul then moves with his daughter, his son and his brother to Ottawa, where each of them will have a role to play in Bougon's government. Meanwhile, Rita Bougon, who doubts her husband's love for her, has traveled south with her sister and falls in love with a handsome Cuban named Chico.",
             "synopsis": "Encouraged by his family, Paul Bougon decides to enter into politics. He founds, in collaboration with his family, the National Ecourement (Sickness) Party (PEN), which relies on the sale of membership cards and illegal donations. He tries to convince his fellow citizens that through him, change will come. Quebeckers believe in Bougon's promises and elect him Premier of Quebec. Paul then moves with his daughter, his son and his brother to Ottawa, where each of them will have a role to play in Bougon's government. Meanwhile, Rita Bougon, who doubts her husband's love for her, has traveled south with her sister and falls in love with a handsome Cuban named Chico.",
             "yt_trailer_code": "Gd161bWq3S0",
             "language": "English",
             "mpa_rating": "",
             "background_image": "https://yts.mx/assets/images/movies/votez_bougon_2016/background.jpg",
             "background_image_original": "https://yts.mx/assets/images/movies/votez_bougon_2016/background.jpg",
             "small_cover_image": "https://yts.mx/assets/images/movies/votez_bougon_2016/small-cover.jpg",
             "medium_cover_image": "https://yts.mx/assets/images/movies/votez_bougon_2016/medium-cover.jpg",
             "large_cover_image": "https://yts.mx/assets/images/movies/votez_bougon_2016/large-cover.jpg",
             "state": "ok",
             "torrents": [
                {
                   "url": "https://yts.mx/torrent/download/644B2ACEBA5D175A1F0B81161A19EAF5F6D9ADD7",
                   "hash": "644B2ACEBA5D175A1F0B81161A19EAF5F6D9ADD7",
                   "quality": "720p",
                   "type": "bluray",
                   "seeds": 47,
                   "peers": 23,
                   "size": "856.31 MB",
                   "size_bytes": 897906115,
                   "date_uploaded": "2020-03-05 07:24:28",
                   "date_uploaded_unix": 1583389468
                },
                {
                   "url": "https://yts.mx/torrent/download/8B9B4726731B9F2DE94822AE04490483F6B6F89A",
                   "hash": "8B9B4726731B9F2DE94822AE04490483F6B6F89A",
                   "quality": "1080p",
                   "type": "bluray",
                   "seeds": 29,
                   "peers": 28,
                   "size": "1.66 GB",
                   "size_bytes": 1782411428,
                   "date_uploaded": "2020-03-05 09:24:38",
                   "date_uploaded_unix": 1583396678
                }
             ],
             "date_uploaded": "2020-03-05 07:24:28",
             "date_uploaded_unix": 1583389468
          },
          {
             "id": 15748,
             "url": "https://yts.mx/movie/port-of-call-2015",
             "imdb_code": "tt4417522",
             "title": "Port of Call",
             "title_english": "Port of Call",
             "title_long": "Port of Call (2015)",
             "slug": "port-of-call-2015",
             "year": 2015,
             "rating": 6.7,
             "runtime": 126,
             "genres": [
                "Crime",
                "Drama",
                "Mystery",
                "Thriller"
             ],
             "summary": "Human nature begins where truth ends Welcome to the murder without a body",
             "description_full": "Human nature begins where truth ends Welcome to the murder without a body",
             "synopsis": "Human nature begins where truth ends Welcome to the murder without a body",
             "yt_trailer_code": "VeZkE31VUmA",
             "language": "English",
             "mpa_rating": "",
             "background_image": "https://yts.mx/assets/images/movies/port_of_call_2015/background.jpg",
             "background_image_original": "https://yts.mx/assets/images/movies/port_of_call_2015/background.jpg",
             "small_cover_image": "https://yts.mx/assets/images/movies/port_of_call_2015/small-cover.jpg",
             "medium_cover_image": "https://yts.mx/assets/images/movies/port_of_call_2015/medium-cover.jpg",
             "large_cover_image": "https://yts.mx/assets/images/movies/port_of_call_2015/large-cover.jpg",
             "state": "ok",
             "torrents": [
                {
                   "url": "https://yts.mx/torrent/download/1FEAC52CF04CA6E4688AEA557CEDAEE0FEFC18E2",
                   "hash": "1FEAC52CF04CA6E4688AEA557CEDAEE0FEFC18E2",
                   "quality": "720p",
                   "type": "bluray",
                   "seeds": 135,
                   "peers": 121,
                   "size": "900.24 MB",
                   "size_bytes": 943970058,
                   "date_uploaded": "2020-03-05 03:56:06",
                   "date_uploaded_unix": 1583376966
                },
                {
                   "url": "https://yts.mx/torrent/download/3D4E8A160870D3A3410090D7B77CE951FF34A96B",
                   "hash": "3D4E8A160870D3A3410090D7B77CE951FF34A96B",
                   "quality": "1080p",
                   "type": "bluray",
                   "seeds": 142,
                   "peers": 83,
                   "size": "1.74 GB",
                   "size_bytes": 1868310774,
                   "date_uploaded": "2020-03-05 06:22:07",
                   "date_uploaded_unix": 1583385727
                }
             ],
             "date_uploaded": "2020-03-05 03:56:06",
             "date_uploaded_unix": 1583376966
          }
       ]
    },
    "@meta": {
       "server_time": 1583431964,
       "server_timezone": "CET",
       "api_version": 2,
       "execution_time": "0.01 ms"
    }
 }